…
```
## Warning: Expected 1 pieces. Additional pieces discarded in 4896 rows [1, 2, 4,
## 5, 6, 7, 8, 9, 10, 11, 12, 13, 15, 16, 17, 18, 19, 20, 21, 22, ...].
```

```
## `summarise()` has grouped output by 'Manufacturer'. You can override using the `.groups` argument.
```

```r
df_fatalityRate
```

```
## # A tibble: 294 x 5
## # Groups:   Manufacturer [5]
##    Manufacturer  Year total_Fatalities total_Aboard Fatality_Rate
##    <chr>        <dbl>            <dbl>        <dbl>         <dbl>
##  1 Airbus        1976                7          258          2.71
##  2 Airbus        1987                5            5        100   
##  3 Airbus        1988              293          426         68.8 
##  4 Airbus        1990               92          146         63.0 
##  5 Airbus        1992              367          376         97.6 
##  6 Airbus        1993                2           70          2.86
##  7 Airbus        1994              349          752         46.4 
##  8 Airbus        1995               60           60        100   
##  9 Airbus        1997              234          234        100   
## 10 Airbus        1998              298          469         63.5 
## # ... with 284 more rows
```
…
