…
```r
weather_tpa %>% 
  mutate(month = month.name[weather_tpa$month] )
```

```
## # A tibble: 367 x 6
##     year month     day precipitation max_temp min_temp
##    <dbl> <chr>   <dbl>         <dbl>    <dbl>    <dbl>
##  1  2016 January     1          0          81       70
##  2  2016 January     2          0          73       59
##  3  2016 January     3          0.18       61       50
##  4  2016 January     4          0          66       49
##  5  2016 January     5          0          68       49
##  6  2016 January     6          0          67       54
##  7  2016 January     7          0          72       56
##  8  2016 January     8          0.54       76       63
##  9  2016 January     9          0.65       78       62
## 10  2016 January    10          0          72       56
## # ... with 357 more rows
```
…
```r
top_15 <- top_100 %>%
  filter(Rank %in% 1:15) %>%
  unnest_tokens(word, Lyrics, token = "words") %>%
  filter(!word %in% stop_words$word, str_detect(word, "[a-z]"))

top_15 %>%
  group_by(word) %>%
  summarise(occurs = n()) %>%
  arrange(desc(occurs = n()))
```

```
## # A tibble: 757 x 2
##    word      occurs
##    <chr>      <int>
##  1 70s            1
##  2 aah            2
##  3 abel           1
##  4 absolutes      1
##  5 accent         1
##  6 accused        1
##  7 acoustic       1
##  8 affection      1
##  9 afraid         1
## 10 againaah       2
## # ... with 747 more rows
```
…
